{
    "policyNumber": "A3130000",
    "zip": "92399",
    "vehicle": "2017 TOYT COROLLA/S/LE (2)",
    "pickupLocation": "vienna va virginia",
    "firstName": "Automation",
    "lastName": "Test",
    "enter": "{enter}",
    "phoneNumber": "9876543210",
    "findProvider": "Looking for the best provider...",
    "assigned": "Provider Assigned",
    "onTheWay": "On the Way",
    "onSite": "On Site",
    "complete": "Complete",
    "volvoProvider": "Contacting Providers",
    "volvoUrl": "?auth=eyJhbGciOiJIUzI1NiJ9.eyJ1c3IiOiIwZDY0MTcxOS02MTdhLTRhYjUtYWQ1MC0zYWQ3NGZkM2ZjYzIiLCJleHAiOjE1ODg3NTUwNTUsInJvbCI6IkNVU1RPTUVSIn0.YNkZ57pf4v5gXE-iT8DPcOfwwxWQMOLKBXK9l4F3Yvk&rt=eyJhbGciOiJIUzI1NiJ9.eyJ1c3IiOiIwZDY0MTcxOS02MTdhLTRhYjUtYWQ1MC0zYWQ3NGZkM2ZjYzIiLCJleHAiOjE2NjEzMjM4NTUsInJvbCI6IkNVU1RPTUVSIn0.GXmfQKvC9FmHBAlM8qmdeOiya01TsjMXXxMvAWj94po&vin=LVY992MK3JP024556"
}