{
  "baseUrl":"https://qa-pp.urgent.ly/",
  "env":{
    "bmwUrl": "https://qa-bmw-pp.urgent.ly/",
    "caliberUrl": "https://qa-partner-beta.urgent.ly/",
    "fleetUrl": "https://qa-fleet.urgent.ly/",
    "volvoSurvey": "https://dev01-volvo-survey.urgent.ly/index.html#survey",
    "safecoUrl": "https://qa-safeco-app.urgent.ly/#/",
    "cssUrl":"https://qa-css.urgent.ly/#",
    "jlrUrl":"https://dev02-bmw-pp.urgent.ly/",
    "apiUrl":"https://dev01-ops-apis.urgent.ly/v3//ops"
  }
}