{
  "env":{
    "bmw_url": "https://dev-bmw-pp.urgent.ly/",
    "caliber_url": "https://dev-partner-beta.urgent.ly/",
    "fleet_url": "https://dev-fleet.urgent.ly/",
    "amFam_url": "https://dev-pp.urgent.ly/",
    "volvo_url": "https://dev-pp.urgent.ly/",
    "volvoSurvey": "https://dev01-volvo-survey.urgent.ly/index.html#survey",

    "ivr2d": "https://qa-amfam-app.urgent.ly/#/policy-detail",
    "feature.payment.enabled": true
  }
  
}